{
	"providers": {
		"awscloudformation": {
			"AuthRoleName": "a5minutejournal-20190117170728-authRole",
			"UnauthRoleArn": "arn:aws:iam::261709701366:role/a5minutejournal-20190117170728-unauthRole",
			"AuthRoleArn": "arn:aws:iam::261709701366:role/a5minutejournal-20190117170728-authRole",
			"Region": "eu-west-1",
			"DeploymentBucketName": "a5minutejournal-20190117170728-deployment",
			"UnauthRoleName": "a5minutejournal-20190117170728-unauthRole",
			"StackName": "a5minutejournal-20190117170728",
			"StackId": "arn:aws:cloudformation:eu-west-1:261709701366:stack/a5minutejournal-20190117170728/5e9b7750-1a7a-11e9-9e28-02c530af27e8"
		}
	},
	"auth": {},
	"api": {
		"fmj-app-dev": {
			"service": "AppSync",
			"output": {
				"securityType": "AMAZON_COGNITO_USER_POOLS",
				"GraphQLAPIIdOutput": "r3h2h6hxmzdb7ospu3ok3uq5xm",
				"GraphQLAPIEndpointOutput": "https://sdi2oy7gbfapbb7lugeoysstz4.appsync-api.eu-west-1.amazonaws.com/graphql"
			},
			"lastPushTimeStamp": "2019-01-23T22:26:57.128Z"
		},
		"fmj-app-production": {
			"service": "AppSync",
			"output": {
				"securityType": "API_KEY",
				"GraphQLAPIIdOutput": "uq7n2ywmpfgwhdi6klzig5gbwu",
				"GraphQLAPIEndpointOutput": "https://k3vidkow6bdvxdqvgrjfsiwxuq.appsync-api.eu-west-1.amazonaws.com/graphql",
				"GraphQLAPIKeyOutput": "da2-ine56o5a7ze5dn26jcahekeupi"
			},
			"lastPushTimeStamp": "2019-01-23T18:24:48.596Z"
		}
	}
}